Mar 31, 2013 1:13:58 PM main.EventsLogger logEvent
INFO: Welcome to the Depot System History
Mar 31, 2013 1:14:00 PM main.EventsLogger logEvent
INFO: 21 customers are in the queue to be processed.
Mar 31, 2013 1:14:00 PM main.EventsLogger logEvent
INFO: ---------------------------------------------------------------
Mar 31, 2013 1:14:00 PM main.EventsLogger logEvent
INFO: generated the Output.txt File For Details
