Mar 31, 2013 1:19:03 PM main.EventsLogger logEvent
INFO: Welcome to the Depot System History
Mar 31, 2013 1:19:03 PM main.EventsLogger logEvent
INFO: 21 customers are in the queue to be processed.
Mar 31, 2013 1:19:03 PM main.EventsLogger logEvent
INFO: ---------------------------------------------------------------
Mar 31, 2013 1:19:03 PM main.EventsLogger logEvent
INFO: generated the Output.txt File For Details
Mar 31, 2013 1:19:19 PM main.EventsLogger logEvent
INFO: Processing Started
Mar 31, 2013 1:19:21 PM main.EventsLogger logEvent
INFO: Worker selected for processing****John Mathew****
Mar 31, 2013 1:19:21 PM main.EventsLogger logEvent
INFO: CUSTOMER WITH PARCEL A1001 PROCESSED
Mar 31, 2013 1:19:23 PM main.EventsLogger logEvent
INFO: Worker selected for processing****John Mathew****
Mar 31, 2013 1:19:23 PM main.EventsLogger logEvent
INFO: CUSTOMER WITH PARCEL A1002 PROCESSED
Mar 31, 2013 1:19:25 PM main.EventsLogger logEvent
INFO: Worker selected for processing****John Mathew****
Mar 31, 2013 1:19:27 PM main.EventsLogger logEvent
INFO: CUSTOMER WITH PARCEL A1003 PROCESSED
Mar 31, 2013 1:19:29 PM main.EventsLogger logEvent
INFO: Worker selected for processing****John Mathew****
Mar 31, 2013 1:19:29 PM main.EventsLogger logEvent
INFO: CUSTOMER WITH PARCEL A1004 PROCESSED
Mar 31, 2013 1:19:31 PM main.EventsLogger logEvent
INFO: Worker selected for processing****John Mathew****
Mar 31, 2013 1:19:31 PM main.EventsLogger logEvent
INFO: CUSTOMER WITH PARCEL A1005 PROCESSED
Mar 31, 2013 1:19:33 PM main.EventsLogger logEvent
INFO: Worker selected for processing****John Mathew****
Mar 31, 2013 1:19:33 PM main.EventsLogger logEvent
INFO: CUSTOMER WITH PARCEL B1001 PROCESSED
Mar 31, 2013 1:19:35 PM main.EventsLogger logEvent
INFO: Worker selected for processing****John Mathew****
Mar 31, 2013 1:19:35 PM main.EventsLogger logEvent
INFO: CUSTOMER WITH PARCEL B1002 PROCESSED
Mar 31, 2013 1:19:37 PM main.EventsLogger logEvent
INFO: Worker selected for processing****John Mathew****
Mar 31, 2013 1:19:37 PM main.EventsLogger logEvent
INFO: CUSTOMER WITH PARCEL B1003 PROCESSED
Mar 31, 2013 1:19:39 PM main.EventsLogger logEvent
INFO: Worker selected for processing****John Mathew****
Mar 31, 2013 1:19:39 PM main.EventsLogger logEvent
INFO: CUSTOMER WITH PARCEL B1004 PROCESSED
Mar 31, 2013 1:19:41 PM main.EventsLogger logEvent
INFO: Worker selected for processing****John Mathew****
Mar 31, 2013 1:19:41 PM main.EventsLogger logEvent
INFO: CUSTOMER WITH PARCEL B1005 PROCESSED
Mar 31, 2013 1:19:43 PM main.EventsLogger logEvent
INFO: Worker selected for processing****John Mathew****
Mar 31, 2013 1:19:43 PM main.EventsLogger logEvent
INFO: CUSTOMER WITH PARCEL C1001 PROCESSED
Mar 31, 2013 1:19:45 PM main.EventsLogger logEvent
INFO: Worker selected for processing****John Mathew****
Mar 31, 2013 1:19:45 PM main.EventsLogger logEvent
INFO: CUSTOMER WITH PARCEL C1002 PROCESSED
Mar 31, 2013 1:19:47 PM main.EventsLogger logEvent
INFO: Worker selected for processing****John Mathew****
Mar 31, 2013 1:19:47 PM main.EventsLogger logEvent
INFO: CUSTOMER WITH PARCEL C1003 PROCESSED
Mar 31, 2013 1:19:49 PM main.EventsLogger logEvent
INFO: Worker selected for processing****John Mathew****
Mar 31, 2013 1:19:49 PM main.EventsLogger logEvent
INFO: CUSTOMER WITH PARCEL C1004 PROCESSED
Mar 31, 2013 1:19:51 PM main.EventsLogger logEvent
INFO: Worker selected for processing****John Mathew****
Mar 31, 2013 1:19:51 PM main.EventsLogger logEvent
INFO: CUSTOMER WITH PARCEL C1005 PROCESSED
Mar 31, 2013 1:19:53 PM main.EventsLogger logEvent
INFO: Worker selected for processing****John Mathew****
Mar 31, 2013 1:19:53 PM main.EventsLogger logEvent
INFO: CUSTOMER WITH PARCEL D1001 PROCESSED
Mar 31, 2013 1:19:55 PM main.EventsLogger logEvent
INFO: Worker selected for processing****John Mathew****
Mar 31, 2013 1:19:55 PM main.EventsLogger logEvent
INFO: CUSTOMER WITH PARCEL D1002 PROCESSED
Mar 31, 2013 1:19:57 PM main.EventsLogger logEvent
INFO: Worker selected for processing****John Mathew****
Mar 31, 2013 1:19:57 PM main.EventsLogger logEvent
INFO: CUSTOMER WITH PARCEL D1003 PROCESSED
Mar 31, 2013 1:19:59 PM main.EventsLogger logEvent
INFO: Worker selected for processing****John Mathew****
Mar 31, 2013 1:20:02 PM main.EventsLogger logEvent
INFO: CUSTOMER WITH PARCEL D1004 PROCESSED
Mar 31, 2013 1:20:04 PM main.EventsLogger logEvent
INFO: Worker selected for processing****John Mathew****
Mar 31, 2013 1:20:04 PM main.EventsLogger logEvent
INFO: CUSTOMER WITH PARCEL D1005 PROCESSED
Mar 31, 2013 1:20:06 PM main.EventsLogger logEvent
INFO: Worker selected for processing****John Mathew****
Mar 31, 2013 1:20:06 PM main.EventsLogger logEvent
INFO: CUSTOMER WITH PARCEL D1006 PROCESSED
Mar 31, 2013 1:20:06 PM main.EventsLogger logEvent
INFO: 18 Parcels and Customers have been Processed
 Check Output.txt File For Details.
Mar 31, 2013 1:20:06 PM main.EventsLogger logEvent
INFO: 18 Parcels and Customers have been Processed
 Check Output.txt File For Details., 3 Customer(s) not Processed
