B1005, 4, 1, 2, 24, 1
D1001, 2, 5, 2, 10, 2  
A1004, 3, 3, 3, 32, 10
B1001, 6, 2, 2, 8, 5
D1002, 4, 1, 2, 5, 1
D1003, 2, 3, 4, 15, 4
C1004, 4, 1, 2,13, 1 
C1005, 3, 3, 3, 12, 10
B1001, 3, 3, 2, 7, 2
B1002, 6, 2, 2, 8, 5 
A1001, 3, 3, 3, 10, 10 
A1002, 4, 1, 2, 8, 8 
A1003, 4, 3, 2, 8, 5
C1002, 2, 3, 4, 10, 4
C1003, 4, 1, 2, 14, 1
B1004, 4, 4, 2, 21, 3 
C1004, 4, 1, 2, 17, 1
D1005, 6, 2, 2, 8, 5
A1005, 2, 3, 4, 16, 4 
B1003, 6, 5, 3, 5, 5
B1004, 6, 5, 3, 5, 5
C2001, 1, 4, 3, 12, 3